3 Results – Bends Before The Break: Understanding Recessions Through the Yield Curve
…
# -----------------------------------------
# 4. Apply to all spreads
# -----------------------------------------
lead_times <- bind_rows(
  lead_time("spread_10y_3m"),
  lead_time("spread_10y_2y"),
  lead_time("spread_5y_2y")
)

lead_times

# A tibble: 33 × 3
   recession_start spread        lead_months
   <date>          <chr>               <dbl>
 1 1954-01-31      spread_10y_3m          NA
 2 1957-09-30      spread_10y_3m          NA
 3 1960-05-31      spread_10y_3m          NA
 4 1970-01-31      spread_10y_3m          NA
 5 1973-12-31      spread_10y_3m          NA
 6 1980-02-29      spread_10y_3m          NA
 7 1981-08-31      spread_10y_3m          NA
 8 1990-08-31      spread_10y_3m          10
 9 2001-04-30      spread_10y_3m           4
10 2008-01-31      spread_10y_3m           6
# ℹ 23 more rows
…
